{
  "xsi:schemaLocation": "urn:oasis:names:tc:xacml:3.0:core:schema:wd-17 xacml-core-v3-schema-wd-17.xsd",
  "xmlns": "urn:oasis:names:tc:xacml:3.0:core:schema:wd-17",
  "xmlns:xsi": "http://www.w3.org/2001/XMLSchema-instance",
  "ReturnPolicyIdList": "false",
  "CombinedDecision": "false",
  "AccessSubject": {
    "Attribute": [
      {
        "AttributeId": "isConflicted",
        "IncludeInResult": "false",
        "Value": "true",
        "DataType": "http://www.w3.org/2001/XMLSchema#string"
      }
    ]
  },
  "Resource": {
    "Attribute": [
      {
        "AttributeId": "resource-class",
        "IncludeInResult": "false",
        "Value": "pcMember-info_rc",
        "DataType": "http://www.w3.org/2001/XMLSchema#string"
      },
      {
        "AttributeId": "urn:oasis:names:tc:xacml:1.0:resource:resource-id",
        "IncludeInResult": "false",
        "Value": "DEFAULT RESOURCE",
        "DataType": "http://www.w3.org/2001/XMLSchema#string"
      }
    ]
  },
  "Action": {
    "Attribute": [
      {
        "AttributeId": "action-type",
        "IncludeInResult": "false",
        "Value": "read",
        "DataType": "http://www.w3.org/2001/XMLSchema#string"
      }
    ]
  },
  "Environment": {
    "Attribute": []
  }
}